<?xml version="1.0" encoding="utf-8"?>
<!-- Generator: Adobe Illustrator 22.0.1, SVG Export Plug-In . SVG Version: 6.00 Build 0)  -->
<svg version="1.1" id="Layer_1" xmlns="http://www.w3.org/2000/svg" xmlns:xlink="http://www.w3.org/1999/xlink" x="0px" y="0px"
	 width="76px" height="55.1px" viewBox="0 0 76 55.1" style="enable-background:new 0 0 76 55.1;" xml:space="preserve">
<style type="text/css">
	.st0{clip-path:url(#SVGID_2_);fill:#3D3D3B;}
</style>
<g>
	<defs>
		<rect id="SVGID_1_" x="12" y="1" width="53.4" height="53.4"/>
	</defs>
	<clipPath id="SVGID_2_">
		<use xlink:href="#SVGID_1_"  style="overflow:visible;"/>
	</clipPath>
	<path class="st0" d="M19,48.8c-0.2,0-0.4-0.1-0.6-0.2l-1.1-1.1c-0.2-0.2-0.2-0.4-0.2-0.6c0-0.2,0.1-0.4,0.2-0.6
		c0.3-0.3,0.8-0.3,1.1,0l1.1,1.1c0.2,0.2,0.2,0.4,0.2,0.6c0,0.2-0.1,0.4-0.2,0.6C19.4,48.7,19.2,48.8,19,48.8"/>
	<path class="st0" d="M42.8,24.2c-0.2,0-0.4-0.1-0.6-0.2c-0.3-0.3-0.3-0.8,0-1.1L56.6,8.5c0.3-0.3,0.8-0.3,1.1,0
		c0.3,0.3,0.3,0.8,0,1.1L43.3,24C43.2,24.1,43,24.2,42.8,24.2"/>
	<path class="st0" d="M24.5,42.5c-0.2,0-0.4-0.1-0.6-0.2c-0.3-0.3-0.3-0.8,0-1.1l9.7-9.7c0.3-0.3,0.8-0.3,1.1,0
		c0.3,0.3,0.3,0.8,0,1.1L25,42.3C24.9,42.4,24.7,42.5,24.5,42.5"/>
	<path class="st0" d="M17.5,49.9c-0.3,0-0.5-0.1-0.7-0.3c-0.3-0.3-0.4-0.7-0.2-1.1l3-8.5c0-0.1,0.1-0.2,0.2-0.3l11-11
		c0.3-0.3,0.8-0.3,1.1,0c0.3,0.3,0.3,0.8,0,1.1L21,40.7L18.4,48l7.3-2.6l11-11c0.3-0.3,0.8-0.3,1.1,0c0.3,0.3,0.3,0.8,0,1.1
		L26.7,46.6c-0.1,0.1-0.2,0.1-0.3,0.2l-8.5,3C17.7,49.9,17.6,49.9,17.5,49.9"/>
	<path class="st0" d="M45.9,27.1c-0.2,0-0.4-0.1-0.6-0.2c-0.3-0.3-0.3-0.8,0-1.1l15.2-15.2c0.9-0.9,0.9-2.3,0-3.2L59,5.8
		c-0.4-0.4-1-0.7-1.6-0.7c-0.6,0-1.2,0.2-1.6,0.7L40.6,21c-0.3,0.3-0.8,0.3-1.1,0c-0.3-0.3-0.3-0.8,0-1.1L54.7,4.7
		c0.7-0.7,1.7-1.1,2.7-1.1c1,0,2,0.4,2.7,1.1l1.5,1.5c1.5,1.5,1.5,3.9,0,5.4L46.4,26.9C46.3,27.1,46.1,27.1,45.9,27.1"/>
	<path class="st0" d="M26,46.5c-0.3,0-0.6-0.2-0.7-0.5l-1.3-3.6L20.2,41c-0.4-0.1-0.6-0.6-0.5-1s0.6-0.6,1-0.5l4,1.5
		c0.2,0.1,0.4,0.2,0.5,0.5l1.5,3.9c0.2,0.4-0.1,0.9-0.5,1C26.1,46.4,26,46.5,26,46.5"/>
	<path class="st0" d="M13.9,10.2l42.4,42.4l7.3-7.3L21.2,2.9L13.9,10.2z M56.2,54.4c-0.2,0-0.4-0.1-0.6-0.2L12.2,10.7
		c-0.3-0.3-0.3-0.8,0-1.1l8.4-8.4C20.8,1.1,21,1,21.2,1s0.4,0.1,0.6,0.2l43.5,43.5c0.3,0.3,0.3,0.8,0,1.1l-8.4,8.4
		C56.7,54.3,56.5,54.4,56.2,54.4"/>
	<path class="st0" d="M17.2,15.4c-0.2,0-0.4-0.1-0.6-0.2c-0.2-0.2-0.2-0.4-0.2-0.6s0.1-0.4,0.2-0.6l2.8-2.8c0.3-0.3,0.8-0.3,1.1,0
		c0.2,0.2,0.2,0.4,0.2,0.6c0,0.2-0.1,0.4-0.2,0.6l-2.8,2.8C17.6,15.3,17.4,15.4,17.2,15.4"/>
	<path class="st0" d="M21.5,19.7c-0.2,0-0.4-0.1-0.6-0.2c-0.2-0.2-0.2-0.4-0.2-0.6s0.1-0.4,0.2-0.6l4.6-4.6c0.3-0.3,0.8-0.3,1.1,0
		c0.2,0.2,0.2,0.4,0.2,0.6c0,0.2-0.1,0.4-0.2,0.6l-4.6,4.6C21.9,19.6,21.7,19.7,21.5,19.7"/>
	<path class="st0" d="M25.8,24c-0.2,0-0.4-0.1-0.6-0.2c-0.2-0.2-0.2-0.4-0.2-0.6c0-0.2,0.1-0.4,0.2-0.6l2.8-2.8
		c0.3-0.3,0.8-0.3,1.1,0c0.2,0.2,0.2,0.4,0.2,0.6c0,0.2-0.1,0.4-0.2,0.6l-2.8,2.8C26.2,23.9,26,24,25.8,24"/>
	<path class="st0" d="M30.1,28.3c-0.2,0-0.4-0.1-0.6-0.2c-0.2-0.2-0.2-0.4-0.2-0.6c0-0.2,0.1-0.4,0.2-0.6l2.8-2.8
		c0.3-0.3,0.8-0.3,1.1,0c0.2,0.2,0.2,0.4,0.2,0.6c0,0.2-0.1,0.4-0.2,0.6l-2.8,2.8C30.5,28.2,30.3,28.3,30.1,28.3"/>
	<path class="st0" d="M38.7,36.9c-0.2,0-0.4-0.1-0.6-0.2c-0.2-0.2-0.2-0.4-0.2-0.6c0-0.2,0.1-0.4,0.2-0.6l2.8-2.8
		c0.3-0.3,0.8-0.3,1.1,0c0.2,0.2,0.2,0.4,0.2,0.6c0,0.2-0.1,0.4-0.2,0.6l-2.8,2.8C39.1,36.8,38.9,36.9,38.7,36.9"/>
	<path class="st0" d="M43,41.2c-0.2,0-0.4-0.1-0.6-0.2c-0.2-0.2-0.2-0.4-0.2-0.6c0-0.2,0.1-0.4,0.2-0.6l2.8-2.8
		c0.3-0.3,0.8-0.3,1.1,0c0.2,0.2,0.2,0.4,0.2,0.6c0,0.2-0.1,0.4-0.2,0.6L43.6,41C43.4,41.1,43.2,41.2,43,41.2"/>
	<path class="st0" d="M47.3,45.5c-0.2,0-0.4-0.1-0.6-0.2c-0.2-0.2-0.2-0.4-0.2-0.6s0.1-0.4,0.2-0.6l4.6-4.6c0.3-0.3,0.8-0.3,1.1,0
		c0.2,0.2,0.2,0.4,0.2,0.6c0,0.2-0.1,0.4-0.2,0.6l-4.6,4.6C47.7,45.4,47.5,45.5,47.3,45.5"/>
	<path class="st0" d="M34.4,32.6c-0.2,0-0.4-0.1-0.6-0.2c-0.2-0.2-0.2-0.4-0.2-0.6c0-0.2,0.1-0.4,0.2-0.6l4.6-4.6
		c0.3-0.3,0.8-0.3,1.1,0c0.2,0.2,0.2,0.4,0.2,0.6c0,0.2-0.1,0.4-0.2,0.6l-4.6,4.6C34.8,32.5,34.6,32.6,34.4,32.6"/>
	<path class="st0" d="M51.6,49.8c-0.2,0-0.4-0.1-0.6-0.2c-0.2-0.2-0.2-0.4-0.2-0.6c0-0.2,0.1-0.4,0.2-0.6l2.8-2.8
		c0.3-0.3,0.8-0.3,1.1,0c0.2,0.2,0.2,0.4,0.2,0.6c0,0.2-0.1,0.4-0.2,0.6l-2.8,2.8C52,49.7,51.8,49.8,51.6,49.8"/>
	<path class="st0" d="M60,12.7c-0.2,0-0.4-0.1-0.6-0.2l-5.6-5.6c-0.2-0.2-0.2-0.4-0.2-0.6c0-0.2,0.1-0.4,0.2-0.6
		c0.3-0.3,0.8-0.3,1.1,0l5.6,5.6c0.2,0.2,0.2,0.4,0.2,0.6s-0.1,0.4-0.2,0.6C60.4,12.6,60.2,12.7,60,12.7"/>
</g>
</svg>
